{
    "openapi": "3.0.3",
    "info": {
        "title": "drop_account",
        "version": "0.0.1",
        "description": "An app to allow users to delete their accounts.",
        "license": {
            "name": "agpl"
        }
    },
    "components": {
        "securitySchemes": {
            "basic_auth": {
                "type": "http",
                "scheme": "basic"
            },
            "bearer_auth": {
                "type": "http",
                "scheme": "bearer"
            }
        },
        "schemas": {
            "Capabilities": {
                "type": "object",
                "required": [
                    "drop-account"
                ],
                "properties": {
                    "drop-account": {
                        "type": "object",
                        "required": [
                            "enabled",
                            "api-version",
                            "delay",
                            "details"
                        ],
                        "properties": {
                            "enabled": {
                                "type": "boolean"
                            },
                            "api-version": {
                                "type": "string"
                            },
                            "delay": {
                                "type": "object",
                                "required": [
                                    "enabled",
                                    "hours"
                                ],
                                "properties": {
                                    "enabled": {
                                        "type": "boolean"
                                    },
                                    "hours": {
                                        "type": "integer",
                                        "format": "int64"
                                    }
                                }
                            },
                            "details": {
                                "type": "string",
                                "nullable": true
                            }
                        }
                    }
                }
            },
            "OCSMeta": {
                "type": "object",
                "required": [
                    "status",
                    "statuscode"
                ],
                "properties": {
                    "status": {
                        "type": "string"
                    },
                    "statuscode": {
                        "type": "integer"
                    },
                    "message": {
                        "type": "string"
                    },
                    "totalitems": {
                        "type": "string"
                    },
                    "itemsperpage": {
                        "type": "string"
                    }
                }
            }
        }
    },
    "paths": {
        "/ocs/v2.php/apps/drop_account/api/v1/account": {
            "delete": {
                "operationId": "api-delete",
                "summary": "Trigger the deletion of the current user account",
                "description": "This endpoint requires password confirmation",
                "tags": [
                    "api"
                ],
                "security": [
                    {
                        "bearer_auth": []
                    },
                    {
                        "basic_auth": []
                    }
                ],
                "parameters": [
                    {
                        "name": "OCS-APIRequest",
                        "in": "header",
                        "description": "Required to be true for the API request to pass",
                        "required": true,
                        "schema": {
                            "type": "boolean",
                            "default": true
                        }
                    }
                ],
                "responses": {
                    "201": {
                        "description": "A confirmation by email is required. An email has been sent to the user",
                        "content": {
                            "application/json": {
                                "schema": {
                                    "type": "object",
                                    "required": [
                                        "ocs"
                                    ],
                                    "properties": {
                                        "ocs": {
                                            "type": "object",
                                            "required": [
                                                "meta",
                                                "data"
                                            ],
                                            "properties": {
                                                "meta": {
                                                    "$ref": "#/components/schemas/OCSMeta"
                                                },
                                                "data": {
                                                    "type": "object",
                                                    "required": [
                                                        "message"
                                                    ],
                                                    "properties": {
                                                        "message": {
                                                            "type": "string"
                                                        }
                                                    }
                                                }
                                            }
                                        }
                                    }
                                }
                            }
                        }
                    },
                    "202": {
                        "description": "The user has been marked for deletion",
                        "content": {
                            "application/json": {
                                "schema": {
                                    "type": "object",
                                    "required": [
                                        "ocs"
                                    ],
                                    "properties": {
                                        "ocs": {
                                            "type": "object",
                                            "required": [
                                                "meta",
                                                "data"
                                            ],
                                            "properties": {
                                                "meta": {
                                                    "$ref": "#/components/schemas/OCSMeta"
                                                },
                                                "data": {
                                                    "type": "object"
                                                }
                                            }
                                        }
                                    }
                                }
                            }
                        }
                    },
                    "401": {
                        "description": "Unable to get user from session",
                        "content": {
                            "application/json": {
                                "schema": {
                                    "type": "object",
                                    "required": [
                                        "ocs"
                                    ],
                                    "properties": {
                                        "ocs": {
                                            "type": "object",
                                            "required": [
                                                "meta",
                                                "data"
                                            ],
                                            "properties": {
                                                "meta": {
                                                    "$ref": "#/components/schemas/OCSMeta"
                                                },
                                                "data": {
                                                    "type": "object",
                                                    "required": [
                                                        "message"
                                                    ],
                                                    "properties": {
                                                        "message": {
                                                            "type": "string"
                                                        }
                                                    }
                                                }
                                            }
                                        }
                                    }
                                }
                            }
                        }
                    },
                    "403": {
                        "description": "The user was not allowed to be deleted",
                        "content": {
                            "application/json": {
                                "schema": {
                                    "type": "object",
                                    "required": [
                                        "ocs"
                                    ],
                                    "properties": {
                                        "ocs": {
                                            "type": "object",
                                            "required": [
                                                "meta",
                                                "data"
                                            ],
                                            "properties": {
                                                "meta": {
                                                    "$ref": "#/components/schemas/OCSMeta"
                                                },
                                                "data": {
                                                    "type": "object",
                                                    "required": [
                                                        "message"
                                                    ],
                                                    "properties": {
                                                        "message": {
                                                            "type": "string",
                                                            "nullable": true
                                                        }
                                                    }
                                                }
                                            }
                                        }
                                    }
                                }
                            }
                        }
                    },
                    "400": {
                        "description": "The user has no email set up in it's account to send the confirmation email to",
                        "content": {
                            "application/json": {
                                "schema": {
                                    "type": "object",
                                    "required": [
                                        "ocs"
                                    ],
                                    "properties": {
                                        "ocs": {
                                            "type": "object",
                                            "required": [
                                                "meta",
                                                "data"
                                            ],
                                            "properties": {
                                                "meta": {
                                                    "$ref": "#/components/schemas/OCSMeta"
                                                },
                                                "data": {
                                                    "type": "object",
                                                    "required": [
                                                        "message"
                                                    ],
                                                    "properties": {
                                                        "message": {
                                                            "type": "string"
                                                        }
                                                    }
                                                }
                                            }
                                        }
                                    }
                                }
                            }
                        }
                    },
                    "500": {
                        "description": "An exception was thrown when sending the user a confirmation email",
                        "content": {
                            "application/json": {
                                "schema": {
                                    "type": "object",
                                    "required": [
                                        "ocs"
                                    ],
                                    "properties": {
                                        "ocs": {
                                            "type": "object",
                                            "required": [
                                                "meta",
                                                "data"
                                            ],
                                            "properties": {
                                                "meta": {
                                                    "$ref": "#/components/schemas/OCSMeta"
                                                },
                                                "data": {
                                                    "type": "object",
                                                    "required": [
                                                        "message"
                                                    ],
                                                    "properties": {
                                                        "message": {
                                                            "type": "string"
                                                        }
                                                    }
                                                }
                                            }
                                        }
                                    }
                                }
                            }
                        }
                    }
                }
            }
        }
    },
    "tags": []
}
